arp_entries, query_time
100, 350269
100, 204354
100, 307005
100, 101156
100, 512659
100, 204102
100, 206064
100, 204516
100, 705540
100, 219800
200, 89060
200, 229875
200, 108326
200, 239226
200, 9090
200, 45991
200, 125105
200, 62959
200, 163163
200, 2032921
300, 319345
300, 209576
300, 306428
300, 206290
300, 511912
300, 306070
300, 532792
300, 109529
300, 89373
300, 63564
400, 99685
400, 12264
400, 665088
400, 1395700
400, 6315790
400, 464689
400, 10042
400, 10075
400, 185104
400, 509909
500, 455834
500, 1136440
500, 33684
500, 79061
500, 153257
500, 595053
500, 579866
500, 120850
500, 2383212
500, 307428
600, 1234311
600, 205797
600, 101766
600, 307371
600, 310095
600, 407523
600, 202307
600, 206744
600, 306318
600, 512705
700, 650113
700, 1239756
700, 50414
700, 119688
700, 37407
700, 380972
700, 206100
700, 6142986
700, 202505
700, 203951
800, 209587
800, 11918
800, 190765
800, 12083
800, 397271
800, 189020
800, 231900
800, 55668
800, 262092
800, 252660
900, 198591
900, 112690
900, 218754
900, 305891
900, 504983
900, 99416
900, 215384
900, 247008
900, 511217
900, 6105926
1000, 1540798
1000, 1126667
1000, 309431
1000, 505927
1000, 409771
1000, 411135
1000, 940038
1000, 173830
1000, 240214
1000, 6222775
2000, 462417
2000, 202719
2000, 209123
2000, 3880592
2000, 106605
2000, 313948
2000, 199408
2000, 200249
2000, 938988
2000, 184853
3000, 114534
3000, 145852
3000, 129066
3000, 95280
3000, 344598
3000, 67016
3000, 101367
3000, 6150145
3000, 203779
3000, 304496
4000, 356491
4000, 725183
4000, 306486
4000, 301082
4000, 496907
4000, 1095313
4000, 120702
4000, 136486
4000, 181446
4000, 313834
5000, 164611
5000, 213204
5000, 203203
5000, 507949
5000, 503699
5000, 144236
5000, 152538
5000, 331602
5000, 249316
5000, 369454
6000, 162685
6000, 127767
6000, 161557
6000, 202941
6000, 101086
6000, 1091020
6000, 149094
6000, 162510
6000, 658770
6000, 1513180
7000, 355738
7000, 315949
7000, 346234
7000, 895300
7000, 401103
7000, 344962
7000, 236581
7000, 593940
7000, 285694
7000, 161789
8000, 271258
8000, 343900
8000, 276574
8000, 114147
8000, 322047
8000, 223702
8000, 302852
8000, 418979
8000, 216995
8000, 205453
9000, 328780
9000, 619167
9000, 815592
9000, 314718
9000, 437181
9000, 272282
9000, 323098
9000, 522428
9000, 295398
9000, 325594
10000, 288554
10000, 428219
10000, 907098
10000, 554732
10000, 463938
10000, 414191
10000, 792594
10000, 328742
10000, 1838467
10000, 529989
20000, 974616
20000, 1111851
20000, 969522
20000, 1059672
20000, 877863
20000, 990981
20000, 1149171
20000, 1117262
20000, 1295522
20000, 1172630
30000, 2451500
30000, 2645179
30000, 2268434
30000, 2557659
30000, 2479106
30000, 2517226
30000, 2495637
30000, 2388085
30000, 2665588
30000, 2292340
40000, 4732426
40000, 4292216
40000, 4271327
40000, 4342400
40000, 4295451
40000, 4363324
40000, 4308561
40000, 4325677
40000, 4213982
40000, 4512058
50000, 6894120
50000, 7250535
50000, 7419433
50000, 7701066
50000, 7458060
50000, 7037058
50000, 7024965
50000, 7117860
50000, 6986541
50000, 7549016
60000, 11091842
60000, 11451780
60000, 10952277
60000, 10990713
60000, 10696972
60000, 11597294
60000, 10721515
60000, 10815094
60000, 10968226
60000, 11088422
70000, 14493683
70000, 15309727
70000, 15489569
70000, 15046268
70000, 15758475
70000, 14722998
70000, 14969624
70000, 14917095
70000, 15061004
70000, 15208900
80000, 18976300
80000, 18621400
80000, 18939822
80000, 19635453
80000, 18698183
80000, 18784919
80000, 19312785
80000, 19290781
80000, 19306512
80000, 21151099
90000, 25605813
90000, 24599634
90000, 26089624
90000, 23824090
90000, 30566674
90000, 24392800
90000, 23300037
90000, 24269590
90000, 23159565
90000, 24288771
100000, 29302472
100000, 29207273
100000, 29114322
100000, 29812404
100000, 28852296
100000, 30115865
100000, 30298969
100000, 29119473
100000, 30264330
100000, 29607430
125000, 46105924
125000, 51365466
125000, 47824017
125000, 44878202
125000, 44194080
125000, 44919076
125000, 45736403
125000, 46756755
125000, 45817666
125000, 44876647
150000, 65989622
150000, 65292757
150000, 64800748
150000, 65435357
150000, 64066718
150000, 64987348
150000, 65993659
150000, 66786219
150000, 65082293
150000, 65124696
175000, 87264544
175000, 87172359
175000, 89357243
175000, 86887779
175000, 87711368
175000, 89011178
175000, 87847845
175000, 87963098
175000, 88554696
175000, 87727740
200000, 117040462
200000, 120189845
200000, 116178207
200000, 116641677
