arp_entries, query_time
100, 716045
100, 406935
100, 101971
200, 206539
200, 617130
200, 448093
300, 1713476
300, 143554
300, 144148
400, 298806
400, 614181
400, 102038
500, 199064
500, 101279
500, 308104
600, 86612
600, 154727
600, 226430
700, 85088
700, 1038587
700, 117270
800, 109829
800, 153268
800, 150382
900, 47704
900, 205993
900, 36915
1000, 87269
1000, 313137
1000, 160942
2000, 360536
2000, 55640
2000, 658346
3000, 106082
3000, 275026
3000, 103915
4000, 310842
4000, 104280
4000, 203791
5000, 240084
5000, 322052
5000, 275247
6000, 589641
6000, 246264
6000, 469760
7000, 473218
7000, 811101
7000, 913223
8000, 153605
8000, 287957
8000, 289140
9000, 311004
9000, 404603
9000, 327874
10000, 275246
10000, 325852
10000, 649620
20000, 6149703
20000, 1139362
20000, 1229015
30000, 2364201
30000, 2353803
30000, 3017587
40000, 4279217
40000, 11048800
40000, 4314293
50000, 6882619
50000, 6851860
50000, 6815999
60000, 9898361
60000, 10277764
60000, 10255066
70000, 13691598
70000, 14499571
70000, 14137996
80000, 17996806
80000, 18371725
80000, 17959411
90000, 22807567
90000, 22496800
90000, 22323679
100000, 28716180
100000, 28591718
100000, 37712781
125000, 48738492
125000, 43869325
125000, 45063987
150000, 72477987
150000, 66313001
150000, 87364021
175000, 111352373
175000, 111861837
175000, 111721992
200000, 143674405
200000, 150955693
200000, 136627225
225000, 139287091
225000, 139173535
225000, 139225933
250000, 175553121
250000, 177707629
250000, 176299997
