arp_entries, query_time
100, 793134
100, 195131
100, 469289
100, 571409
100, 5016574
100, 141864
100, 189854
100, 250476
100, 89943
100, 249216
200, 1889448
200, 494494
200, 14663
200, 143973
200, 223229
200, 163075
200, 71529
200, 119319
200, 204818
200, 479552
300, 7525
300, 289927
300, 116729
300, 574205
300, 170475
300, 255585
300, 7644
300, 57787
300, 279492
300, 57709
400, 195451
400, 180183
400, 625015
400, 8233
400, 203824
400, 6592782
400, 140935
400, 120302
400, 77511
400, 88231
500, 58043
500, 255951
500, 137607
500, 101928
500, 51705
500, 73614
500, 4837201
500, 47646
500, 233681
500, 99179
600, 106123
600, 123983
600, 196398
600, 77177
600, 481986
600, 49098
600, 101014
600, 8019
600, 202328
600, 385939
700, 148764
700, 138107
700, 308054
700, 703551
700, 186145
700, 360881
700, 151228
700, 676629
700, 84728
700, 36107
800, 104095
800, 84867
800, 102675
800, 62828
800, 148767
800, 68761
800, 9839
800, 37574
800, 22624
800, 227561
900, 103647
900, 115058
900, 129281
900, 102210
900, 497521
900, 176383
900, 48111
900, 28021
900, 123936
900, 29760
1000, 202732
1000, 647560
1000, 11937
1000, 12907
1000, 77632
1000, 28820
1000, 248435
1000, 252868
1000, 30139
1000, 143168
2000, 307430
2000, 109765
2000, 19870
2000, 54728
2000, 304082
2000, 87944
2000, 54643
2000, 21466
2000, 20170
2000, 311328
3000, 140271
3000, 147477
3000, 27721
3000, 218887
3000, 131507
3000, 753020
3000, 481036
3000, 1577373
3000, 218948
3000, 60959
4000, 206177
4000, 232277
4000, 308701
4000, 669040
4000, 122727
4000, 176438
4000, 198851
4000, 139926
4000, 289187
4000, 381183
5000, 131684
5000, 125971
5000, 69906
5000, 482013
5000, 121464
5000, 56968
5000, 961594
5000, 444285
5000, 546451
5000, 155372
6000, 2300453
6000, 190180
6000, 302297
6000, 516956
6000, 282751
6000, 5130386
6000, 622493
6000, 403606
6000, 422860
6000, 970805
7000, 79978
7000, 138303
7000, 678321
7000, 209016
7000, 762207
7000, 209808
7000, 722195
7000, 271247
7000, 253969
7000, 104239
8000, 460110
8000, 272091
8000, 408262
8000, 313202
8000, 208853
8000, 317184
8000, 167661
8000, 534618
8000, 189967
8000, 298559
9000, 404925
9000, 314862
9000, 860041
9000, 465934
9000, 275171
9000, 359535
9000, 254602
9000, 243797
9000, 373646
9000, 6935715
10000, 365468
10000, 339030
10000, 503756
10000, 318870
10000, 5996549
10000, 5193878
10000, 317088
10000, 303863
10000, 474792
10000, 498117
20000, 925603
20000, 1137122
20000, 989349
20000, 1136569
20000, 1073446
20000, 1739270
20000, 972357
20000, 937786
20000, 880720
20000, 1357747
30000, 2623620
30000, 2780740
30000, 2595121
30000, 2437378
30000, 2535425
30000, 2639936
30000, 2506368
30000, 2888238
30000, 2498062
30000, 2896386
40000, 4606653
40000, 6338351
40000, 4552520
40000, 4776869
40000, 4380864
40000, 4204783
40000, 4394202
40000, 4346512
40000, 4525836
40000, 4208831
50000, 6756627
50000, 7877242
50000, 7422012
50000, 8554782
50000, 7276889
50000, 7354657
50000, 7122280
50000, 7134076
50000, 7247996
50000, 6805243
60000, 10339181
60000, 11570709
60000, 9915300
60000, 10943260
60000, 10369377
60000, 10064270
60000, 10088426
60000, 10208422
60000, 9947048
60000, 10999317
70000, 14482670
70000, 13581707
70000, 13657071
70000, 18067419
70000, 13143780
70000, 13722473
70000, 18176677
70000, 13356546
70000, 13327779
70000, 15089936
80000, 18495787
80000, 16988867
80000, 17783663
80000, 17541651
80000, 17819114
80000, 17708738
80000, 17234816
80000, 17893979
80000, 17741316
80000, 17985744
90000, 22221858
90000, 22486615
90000, 22236478
90000, 21848022
90000, 22652622
90000, 22311124
90000, 23102583
90000, 22595599
90000, 28047182
90000, 28468751
100000, 33709387
100000, 33652217
100000, 34628307
100000, 37521259
100000, 26909499
100000, 27069158
100000, 27679507
100000, 26766302
100000, 31871502
100000, 27240334
125000, 42254480
125000, 41880669
125000, 42403754
125000, 42908103
125000, 42763108
125000, 42256787
125000, 50582227
125000, 42327250
125000, 42658618
125000, 42369044
